Name,Level,Keyword,Initiative,Statline,Targetline,Threatline,Ability1,Ability2,Ability3,Ability4,Ability5,Ability6,Type
Ovidling,1,Bug,11,Minion:$H2 | Normal:$H3 | Elite $H5,$T Enemy with most adjacent allies,"$W $M3, deal $D4 to all adjacent enemies, then die","$1$3$5: $M3,$D1",,,"$2$4$6: $M1,$D3",,,Monster
Kaywing,1,Mutant,11,Flying | Normal $H4 | Elite $H7 ,$T furthest enemy,"$W  $M5 $D2, roll 2 dice",$1 $M6 $D2 Piercing,$2 $D3 $M3,$3 $M3 $D1,$4 $M2 $D2 Piercing,$5 Evade 1,$6 Regenerate 2,Monster
Raider Biker,1,Raider,12,Normal $H4 | Elite $H8,$T furthest enemy,$W$W and remove from combat,"$1 $M5, decrease cooldown by 1",$2$3 $M3 $R2 $D3,,"$4$5 $M4, $R2, $D2",,"$6 Evade 1, reroll",Monster
Gremlin Drone,1,Drone,12,Minion $H1 $A1 | Normal $H3 $A1,$T Enemy with the highest health,"$W $M3 Cone 3 The targets loses all block, armor, retaliate, and evade and cannot gain any until the end of its next turn.",$1$2$3 $M3 $D1 Freeze 2  ,,,$4$5 $M3 Remove all  tokens from the target then $D2,,$6 $M2 The next attack against the target deals double damage,Monster
Axhead,2,Bug,10,"Normal:$H7 | Elite:$H12, $F1",$T Closest enemy,"$W $M4,$D4, $T all adjacent enemies","$1:$M2,$F2","$2:$M5,$D3","$3:$M4,$D2","$4:$M2,$D2,$T2","$5:$M2, reroll and add +$T1 to next attack","$6, $D(7-$H)",Monster
Bleacher,2,Bug,9,"Normal:$H6 | Elite:$H9, $A1",$T Enemy with the highest health,"$W $R4, Burst 1, $B3",$1: Place a $B3 trap in an adjacent empty hex closest to an enemy,,"$2$3$M4,$R4,$B2","$4$5:$M2,$D3, All adjacent creatures trigger their $B tokens",,"$6:$M4,$B2 all adjacent",Monster
Rhinostag,2,Bug,8,Spawns with $K2 | Normal $H7  | Elite $H13,$T closest enemy,"$W  $M2 $D3 Push 2, Repeat two more times. ","$1 Push 3, the target takes $D4 if its movement is stopped by a wall or obstacle",,$2$3 $M2 $D2 Push 2,$4 $M2 $D2 $K2,"$5 Cone 1, $D2 Push 1",$6 $D1 $K4,Monster
Merc Bodyguard,2,Merc,7,Normal $H5 $A1 | Elite $H9 $A1,$T enemy adjacent to most of the bodyguard's allies,"$W  $T ally with the most damage $R3 Burst 2, $K5",$1 Haste 2 Boost 2,$2 $M2 $D3,$3 $M3 $D2,$4 $K4 $D2 Immobilize,$5 $M2 $D2 Immobilize,$6 Line 3 Pull 2 $D2,Monster
Sapper,2,Merc,8,Normal $H6 | Elite $H10,$T The enemy with the most tokens,"$W  $M2 $T2, target loses all block, armor, and retaliate, $D3","$1 $R3 $D1, and Disarm",$2 $M1 $R3 Shock (roll d6 to determine shock number),$3 $M2 $R3 Freeze 1,$4 $M1 $R3 $D2 Slow 2,$5$6 $R4 Remove any benefitial tokens. $D4,,Monster
Harvester Mass,3,Bug,8,"BOSS: $4+H4x#C, Large, Trample",$T Enemy with the highest health,"$W $T adjacent enemies, $D3, if the target has block or shield also deal $B2","1[Any Pair] $M3,$D2, gain a new die with the same value",,"2[Min 5] $M1, Cone 2, $B2","3[Odd] $M1, $R4, Pull 3, Immobilize",,4[Sum 8]: Trigger Threat ability,Monster
Burrowing Beetles,3,Bug,9,Normal $H9  | Elite $H14,$T enemy with the lowest initiative,"$W $J3 $T All adjacent enemies. $D3 damage, Push 1, and create 5hp obstacles in any vacated hexes. ",$1 $D3 and immobilize ,$2$3 $J4 $D2 ,,$4$5 $M2 $D3,,$6 $J4 Evade 2 ,Monster
Exo-soldier,3,Merc,7,Normal $H9  | Elite $H14,$T enemy with the highest hp,"$W  $R3 Burst 1, $D4",$1 Add +$T1 and reroll,$2$3 $M3 $R3 $D3,,"$4$5  $R3 $D1, rerolll",,$6 $R3 $D1 Evade 1,Monster
Scrap Tank,3,Merc,5,Normal $H8 $A1 | Elite $H12 $A1,$T the closest enemy,$W  Cone 3 $D4,$1 $A3,$2$3 $M1 Line 4 $D3,,$4 $K4,"$5$6 $M1 $R3 $D3, enemies adjacent to the target take $D2 ",,Monster
UF Lancer,3,UF Soldier,5,Normal $H10  | Elite $H16,$T enemy with the lowest initiative,"$W $M1, Line 5, $D4","$1$2 $M4, $D1 reroll",,"$3 $M3, $D3","$4$5 $M3, $D2, gain +$D1 for each hex moved this turn",,"$6 Line 3, $D4",Monster
Needlebeast,4,Bug,8,Normal $H12 | Elite $H18,$T enemy with the highest initiative,$W $R3 $M3 $D3,$1 $M1 $F3 $K3,$2: $M3 $R2 $D2 $T2,"$3: Cone 3, $B3",$4$5: $M2 $R4 $D3,,$6 $A2 $M2 ,Monster
Valkyrie,4,Merc,8,"Normal $H13 | Elite $H16, Evade 1 each turn",$T The furthest enemy,$W  $J4 $D1 $J4 $D2 $J4 $D4 ,"$1 $J3, $D1, and immobilze ",$2$3 $M4 $D2 Piercing,,$4$5 $M2 $D4,,$6 $J4 $D4,Monster
UF Captain,4,UF Soldier,6,Normal $H14  | Elite $H22,$T the closest enemy,$W  All allies withn 3 gain an extra die on their turn,"$1 $R4, $T two allies,  Haste 2 Boost 2","$2$3 $M2, $D2, The target takes +$D2 if it has another enemy adjacent to it",,$4$5 $M4 $D3,"$6 $R3, $T Ally with lowest health, Regenerate 4",,Monster
Construction Titan,5,Robot,5,"BOSS: $H10+5x#C, Large",$T the closest enemy,"$W  Line 4, $D5 Push 2, then create a 5HP obstacle in each empty hex",$1 $M1 $K6,"$2$3 $M1 $R4 Burst 1, $D4. Destroy any obstacles in the area.",,$4 $M2 $D3 Push 3,$5 $M3 Cone 1 $D4,$6 $M4 $D3 $T2,Monster